enco.vcd
$date
  Sat Mar 08 14:28:05 2025
$end
$version
  GHDL v0
$end
$timescale
  1 fs
$end
$var reg 1 ! i0 $end
$var reg 1 " i1 $end
$var reg 1 # i2 $end
$var reg 1 $ i3 $end
$var reg 1 % i4 $end
$var reg 1 & i5 $end
$var reg 1 ' i6 $end
$var reg 1 ( i7 $end
$var reg 1 ) o0 $end
$var reg 1 * o1 $end
$var reg 1 + o2 $end
$scope module encoder8t03 $end
$var reg 1 , i0 $end
$var reg 1 - i1 $end
$var reg 1 . i2 $end
$var reg 1 / i3 $end
$var reg 1 0 i4 $end
$var reg 1 1 i5 $end
$var reg 1 2 i6 $end
$var reg 1 3 i7 $end
$var reg 1 4 o0 $end
$var reg 1 5 o1 $end
$var reg 1 6 o2 $end
$upscope $end
$enddefinitions $end
#0
1!
0"
0#
0$
0%
0&
0'
0(
0)
0*
0+
1,
0-
0.
0/
00
01
02
03
04
05
06
#1000000
0!
1"
1+
0,
1-
16
#2000000
0"
1#
1*
0+
0-
1.
15
06
#3000000
0#
1$
1+
0.
1/
16
#4000000
0$
1%
1)
0*
0+
0/
10
14
05
06
#5000000
0%
1&
1+
00
11
16
#6000000
0&
1'
1*
0+
01
12
15
06
#7000000
0'
1(
1+
02
13
16
