loggates.vcd
$date
  Sat Mar 01 19:37:57 2025
$end
$version
  GHDL v0
$end
$timescale
  1 fs
$end
$var reg 1 ! a $end
$var reg 1 " b $end
$var reg 1 # y_and $end
$var reg 1 $ y_or $end
$var reg 1 % y_not $end
$scope module and_gate_inst $end
$var reg 1 & a $end
$var reg 1 ' b $end
$var reg 1 ( y $end
$upscope $end
$scope module or_gate_inst $end
$var reg 1 ) a $end
$var reg 1 * b $end
$var reg 1 + y $end
$upscope $end
$scope module not_gate_inst $end
$var reg 1 , a $end
$var reg 1 - y $end
$upscope $end
$enddefinitions $end
#0
0!
0"
0#
0$
1%
0&
0'
0(
0)
0*
0+
0,
1-
#10000000
1"
1$
1'
1*
1+
#20000000
1!
0"
0%
1&
0'
1)
0*
1,
0-
#30000000
1"
1#
1'
1(
1*
#40000000
0!
0"
0#
0$
1%
0&
0'
0(
0)
0*
0+
0,
1-
#50000000
1"
1$
1'
1*
1+
#60000000
1!
0"
0%
1&
0'
1)
0*
1,
0-
#70000000
1"
1#
1'
1(
1*
#80000000
0!
0#
1%
0&
0(
0)
0,
1-
#90000000
1!
1#
0%
1&
1(
1)
1,
0-
