pargen.vcd
$date
  Fri Feb 28 21:13:02 2025
$end
$version
  GHDL v0
$end
$timescale
  1 fs
$end
$var reg 8 ! data_s[7:0] $end
$var reg 1 " parity_s $end
$scope module uut $end
$var reg 8 # data[7:0] $end
$var reg 1 $ parity $end
$upscope $end
$enddefinitions $end
#0
b00000000 !
0"
b00000000 #
0$
#10000000
b00000001 !
1"
b00000001 #
1$
#20000000
b11111111 !
0"
b11111111 #
0$
#30000000
b10101010 !
b10101010 #
#40000000
b11001100 !
b11001100 #
#50000000
b11110000 !
b11110000 #
#60000000
b00001111 !
b00001111 #
#70000000
b10010010 !
1"
b10010010 #
1$
